,id,restaurant_id,item_id,item_name,price
0,0,0,0,appetizer option 1,18.1
1,1,0,1,appetizer option 2,6.72
2,2,0,2,appetizer option 3,13.34
3,3,0,3,main dish 1,29.92
4,4,0,4,main dish 2,5.86
5,5,0,5,main dish 3,14.75
6,6,0,6,main dish 4,13.09
7,7,0,7,bottled water,7.81
8,8,0,8,soda,29.96
9,9,0,9,iced tea,2.89
10,10,1,0,appetizer option 1,16.32
11,11,1,1,appetizer option 2,15.96
12,12,1,2,appetizer option 3,14.83
13,13,1,3,main dish 1,13.22
14,14,1,4,main dish 2,20.67
15,15,1,5,main dish 3,10.74
16,16,1,6,main dish 4,18.66
17,17,1,7,bottled water,29.98
18,18,1,8,soda,16.25
19,19,1,9,iced tea,25.57
20,20,2,0,appetizer option 1,26.43
21,21,2,1,appetizer option 2,11.19
22,22,2,2,appetizer option 3,27.47
23,23,2,3,main dish 1,11.09
24,24,2,4,main dish 2,2.73
25,25,2,5,main dish 3,14.73
26,26,2,6,main dish 4,7.16
27,27,2,7,bottled water,5.27
28,28,2,8,soda,16.8
29,29,2,9,iced tea,7.0
30,30,3,0,appetizer option 1,13.71
31,31,3,1,appetizer option 2,9.17
32,32,3,2,appetizer option 3,11.61
33,33,3,3,main dish 1,16.84
34,34,3,4,main dish 2,3.57
35,35,3,5,main dish 3,19.11
36,36,3,6,main dish 4,19.09
37,37,3,7,bottled water,28.53
38,38,3,8,soda,28.98
39,39,3,9,iced tea,29.98
40,40,4,0,appetizer option 1,20.03
41,41,4,1,appetizer option 2,4.54
42,42,4,2,appetizer option 3,8.67
43,43,4,3,main dish 1,13.56
44,44,4,4,main dish 2,19.69
45,45,4,5,main dish 3,28.25
46,46,4,6,main dish 4,9.14
47,47,4,7,bottled water,28.53
48,48,4,8,soda,6.32
49,49,4,9,iced tea,4.0
50,50,5,0,appetizer option 1,29.13
51,51,5,1,appetizer option 2,12.45
52,52,5,2,appetizer option 3,26.69
53,53,5,3,main dish 1,12.76
54,54,5,4,main dish 2,18.41
55,55,5,5,main dish 3,20.91
56,56,5,6,main dish 4,14.47
57,57,5,7,bottled water,13.52
58,58,5,8,soda,9.97
59,59,5,9,iced tea,8.79
60,60,6,0,appetizer option 1,11.06
61,61,6,1,appetizer option 2,25.72
62,62,6,2,appetizer option 3,14.61
63,63,6,3,main dish 1,26.28
64,64,6,4,main dish 2,17.41
65,65,6,5,main dish 3,5.24
66,66,6,6,main dish 4,23.11
67,67,6,7,bottled water,28.18
68,68,6,8,soda,28.16
69,69,6,9,iced tea,3.59
70,70,7,0,appetizer option 1,14.9
71,71,7,1,appetizer option 2,21.29
72,72,7,2,appetizer option 3,15.72
73,73,7,3,main dish 1,10.32
74,74,7,4,main dish 2,11.43
75,75,7,5,main dish 3,6.83
76,76,7,6,main dish 4,21.87
77,77,7,7,bottled water,24.32
78,78,7,8,soda,16.72
79,79,7,9,iced tea,28.48
80,80,8,0,appetizer option 1,21.75
81,81,8,1,appetizer option 2,23.47
82,82,8,2,appetizer option 3,23.31
83,83,8,3,main dish 1,8.11
84,84,8,4,main dish 2,18.01
85,85,8,5,main dish 3,18.69
86,86,8,6,main dish 4,4.67
87,87,8,7,bottled water,21.13
88,88,8,8,soda,10.22
89,89,8,9,iced tea,20.06
90,90,9,0,appetizer option 1,3.12
91,91,9,1,appetizer option 2,25.38
92,92,9,2,appetizer option 3,25.15
93,93,9,3,main dish 1,5.53
94,94,9,4,main dish 2,15.67
95,95,9,5,main dish 3,27.39
96,96,9,6,main dish 4,28.75
97,97,9,7,bottled water,9.06
98,98,9,8,soda,4.24
99,99,9,9,iced tea,22.29
100,100,10,0,appetizer option 1,3.48
101,101,10,1,appetizer option 2,7.1
102,102,10,2,appetizer option 3,2.85
103,103,10,3,main dish 1,21.82
104,104,10,4,main dish 2,4.9
105,105,10,5,main dish 3,25.38
106,106,10,6,main dish 4,22.72
107,107,10,7,bottled water,2.62
108,108,10,8,soda,21.7
109,109,10,9,iced tea,28.87
110,110,11,0,appetizer option 1,7.72
111,111,11,1,appetizer option 2,20.2
112,112,11,2,appetizer option 3,12.16
113,113,11,3,main dish 1,4.12
114,114,11,4,main dish 2,24.62
115,115,11,5,main dish 3,3.27
116,116,11,6,main dish 4,9.71
117,117,11,7,bottled water,11.1
118,118,11,8,soda,24.63
119,119,11,9,iced tea,17.37
120,120,12,0,appetizer option 1,21.23
121,121,12,1,appetizer option 2,21.03
122,122,12,2,appetizer option 3,28.95
123,123,12,3,main dish 1,13.62
124,124,12,4,main dish 2,2.82
125,125,12,5,main dish 3,10.2
126,126,12,6,main dish 4,5.23
127,127,12,7,bottled water,22.49
128,128,12,8,soda,15.83
129,129,12,9,iced tea,27.85
130,130,13,0,appetizer option 1,7.24
131,131,13,1,appetizer option 2,23.46
132,132,13,2,appetizer option 3,14.31
133,133,13,3,main dish 1,4.46
134,134,13,4,main dish 2,26.27
135,135,13,5,main dish 3,2.79
136,136,13,6,main dish 4,23.97
137,137,13,7,bottled water,22.39
138,138,13,8,soda,13.93
139,139,13,9,iced tea,13.21
140,140,14,0,appetizer option 1,18.36
141,141,14,1,appetizer option 2,17.23
142,142,14,2,appetizer option 3,27.4
143,143,14,3,main dish 1,19.27
144,144,14,4,main dish 2,28.44
145,145,14,5,main dish 3,24.53
146,146,14,6,main dish 4,4.41
147,147,14,7,bottled water,8.14
148,148,14,8,soda,9.24
149,149,14,9,iced tea,19.21
150,150,15,0,appetizer option 1,15.88
151,151,15,1,appetizer option 2,9.63
152,152,15,2,appetizer option 3,7.74
153,153,15,3,main dish 1,5.38
154,154,15,4,main dish 2,17.39
155,155,15,5,main dish 3,12.4
156,156,15,6,main dish 4,15.87
157,157,15,7,bottled water,25.0
158,158,15,8,soda,25.86
159,159,15,9,iced tea,25.84
160,160,16,0,appetizer option 1,27.23
161,161,16,1,appetizer option 2,19.52
162,162,16,2,appetizer option 3,11.23
163,163,16,3,main dish 1,10.9
164,164,16,4,main dish 2,11.66
165,165,16,5,main dish 3,27.79
166,166,16,6,main dish 4,9.9
167,167,16,7,bottled water,10.47
168,168,16,8,soda,21.3
169,169,16,9,iced tea,28.2
170,170,17,0,appetizer option 1,7.04
171,171,17,1,appetizer option 2,26.45
172,172,17,2,appetizer option 3,3.6
173,173,17,3,main dish 1,17.14
174,174,17,4,main dish 2,23.46
175,175,17,5,main dish 3,29.74
176,176,17,6,main dish 4,17.94
177,177,17,7,bottled water,15.75
178,178,17,8,soda,25.75
179,179,17,9,iced tea,27.92
180,180,18,0,appetizer option 1,2.93
181,181,18,1,appetizer option 2,25.89
182,182,18,2,appetizer option 3,11.17
183,183,18,3,main dish 1,17.9
184,184,18,4,main dish 2,4.27
185,185,18,5,main dish 3,28.42
186,186,18,6,main dish 4,6.46
187,187,18,7,bottled water,25.7
188,188,18,8,soda,23.65
189,189,18,9,iced tea,16.3
190,190,19,0,appetizer option 1,20.21
191,191,19,1,appetizer option 2,5.62
192,192,19,2,appetizer option 3,6.79
193,193,19,3,main dish 1,23.58
194,194,19,4,main dish 2,12.59
195,195,19,5,main dish 3,19.46
196,196,19,6,main dish 4,13.04
197,197,19,7,bottled water,25.11
198,198,19,8,soda,21.24
199,199,19,9,iced tea,21.64
200,200,20,0,appetizer option 1,19.95
201,201,20,1,appetizer option 2,3.05
202,202,20,2,appetizer option 3,10.76
203,203,20,3,main dish 1,21.76
204,204,20,4,main dish 2,24.6
205,205,20,5,main dish 3,21.84
206,206,20,6,main dish 4,11.85
207,207,20,7,bottled water,29.96
208,208,20,8,soda,5.7
209,209,20,9,iced tea,2.94
210,210,21,0,appetizer option 1,21.43
211,211,21,1,appetizer option 2,14.64
212,212,21,2,appetizer option 3,26.86
213,213,21,3,main dish 1,10.41
214,214,21,4,main dish 2,12.74
215,215,21,5,main dish 3,15.46
216,216,21,6,main dish 4,12.88
217,217,21,7,bottled water,24.44
218,218,21,8,soda,26.69
219,219,21,9,iced tea,28.01
220,220,22,0,appetizer option 1,28.65
221,221,22,1,appetizer option 2,22.63
222,222,22,2,appetizer option 3,21.1
223,223,22,3,main dish 1,24.37
224,224,22,4,main dish 2,13.43
225,225,22,5,main dish 3,21.8
226,226,22,6,main dish 4,25.98
227,227,22,7,bottled water,27.05
228,228,22,8,soda,14.97
229,229,22,9,iced tea,28.47
230,230,23,0,appetizer option 1,11.32
231,231,23,1,appetizer option 2,13.46
232,232,23,2,appetizer option 3,24.74
233,233,23,3,main dish 1,15.67
234,234,23,4,main dish 2,20.29
235,235,23,5,main dish 3,15.5
236,236,23,6,main dish 4,26.35
237,237,23,7,bottled water,11.72
238,238,23,8,soda,27.71
239,239,23,9,iced tea,22.32
240,240,24,0,appetizer option 1,8.39
241,241,24,1,appetizer option 2,21.06
242,242,24,2,appetizer option 3,4.67
243,243,24,3,main dish 1,11.37
244,244,24,4,main dish 2,29.27
245,245,24,5,main dish 3,20.65
246,246,24,6,main dish 4,10.98
247,247,24,7,bottled water,4.5
248,248,24,8,soda,25.41
249,249,24,9,iced tea,26.48
250,250,25,0,appetizer option 1,5.19
251,251,25,1,appetizer option 2,15.58
252,252,25,2,appetizer option 3,9.96
253,253,25,3,main dish 1,23.54
254,254,25,4,main dish 2,5.09
255,255,25,5,main dish 3,15.52
256,256,25,6,main dish 4,18.88
257,257,25,7,bottled water,12.39
258,258,25,8,soda,13.66
259,259,25,9,iced tea,6.32
260,260,26,0,appetizer option 1,12.07
261,261,26,1,appetizer option 2,25.58
262,262,26,2,appetizer option 3,18.18
263,263,26,3,main dish 1,17.47
264,264,26,4,main dish 2,17.57
265,265,26,5,main dish 3,11.88
266,266,26,6,main dish 4,12.2
267,267,26,7,bottled water,18.31
268,268,26,8,soda,8.75
269,269,26,9,iced tea,3.82
270,270,27,0,appetizer option 1,11.23
271,271,27,1,appetizer option 2,21.31
272,272,27,2,appetizer option 3,4.6
273,273,27,3,main dish 1,22.06
274,274,27,4,main dish 2,25.89
275,275,27,5,main dish 3,18.13
276,276,27,6,main dish 4,15.43
277,277,27,7,bottled water,15.37
278,278,27,8,soda,27.34
279,279,27,9,iced tea,7.42
280,280,28,0,appetizer option 1,7.11
281,281,28,1,appetizer option 2,27.13
282,282,28,2,appetizer option 3,20.5
283,283,28,3,main dish 1,17.52
284,284,28,4,main dish 2,10.77
285,285,28,5,main dish 3,8.6
286,286,28,6,main dish 4,12.77
287,287,28,7,bottled water,3.69
288,288,28,8,soda,18.08
289,289,28,9,iced tea,7.76
290,290,29,0,appetizer option 1,20.39
291,291,29,1,appetizer option 2,26.94
292,292,29,2,appetizer option 3,17.71
293,293,29,3,main dish 1,17.41
294,294,29,4,main dish 2,15.2
295,295,29,5,main dish 3,2.9
296,296,29,6,main dish 4,11.86
297,297,29,7,bottled water,4.78
298,298,29,8,soda,3.37
299,299,29,9,iced tea,10.83
300,300,30,0,appetizer option 1,5.51
301,301,30,1,appetizer option 2,4.81
302,302,30,2,appetizer option 3,25.47
303,303,30,3,main dish 1,3.88
304,304,30,4,main dish 2,28.86
305,305,30,5,main dish 3,7.04
306,306,30,6,main dish 4,26.59
307,307,30,7,bottled water,11.66
308,308,30,8,soda,25.98
309,309,30,9,iced tea,21.6
310,310,31,0,appetizer option 1,20.37
311,311,31,1,appetizer option 2,8.02
312,312,31,2,appetizer option 3,26.11
313,313,31,3,main dish 1,13.36
314,314,31,4,main dish 2,29.38
315,315,31,5,main dish 3,28.88
316,316,31,6,main dish 4,15.34
317,317,31,7,bottled water,9.76
318,318,31,8,soda,22.75
319,319,31,9,iced tea,2.66
320,320,32,0,appetizer option 1,23.83
321,321,32,1,appetizer option 2,5.86
322,322,32,2,appetizer option 3,23.02
323,323,32,3,main dish 1,29.97
324,324,32,4,main dish 2,27.76
325,325,32,5,main dish 3,27.41
326,326,32,6,main dish 4,9.9
327,327,32,7,bottled water,17.25
328,328,32,8,soda,28.09
329,329,32,9,iced tea,5.75
330,330,33,0,appetizer option 1,25.45
331,331,33,1,appetizer option 2,20.56
332,332,33,2,appetizer option 3,18.4
333,333,33,3,main dish 1,23.79
334,334,33,4,main dish 2,9.32
335,335,33,5,main dish 3,19.98
336,336,33,6,main dish 4,25.26
337,337,33,7,bottled water,20.48
338,338,33,8,soda,20.5
339,339,33,9,iced tea,21.09
340,340,34,0,appetizer option 1,2.83
341,341,34,1,appetizer option 2,28.99
342,342,34,2,appetizer option 3,3.97
343,343,34,3,main dish 1,5.12
344,344,34,4,main dish 2,13.17
345,345,34,5,main dish 3,4.96
346,346,34,6,main dish 4,22.57
347,347,34,7,bottled water,27.74
348,348,34,8,soda,10.78
349,349,34,9,iced tea,16.73
350,350,35,0,appetizer option 1,24.22
351,351,35,1,appetizer option 2,13.4
352,352,35,2,appetizer option 3,3.39
353,353,35,3,main dish 1,7.55
354,354,35,4,main dish 2,9.13
355,355,35,5,main dish 3,17.39
356,356,35,6,main dish 4,4.86
357,357,35,7,bottled water,8.76
358,358,35,8,soda,23.73
359,359,35,9,iced tea,11.63
360,360,36,0,appetizer option 1,24.98
361,361,36,1,appetizer option 2,26.39
362,362,36,2,appetizer option 3,8.58
363,363,36,3,main dish 1,14.04
364,364,36,4,main dish 2,5.74
365,365,36,5,main dish 3,27.17
366,366,36,6,main dish 4,23.82
367,367,36,7,bottled water,8.34
368,368,36,8,soda,7.0
369,369,36,9,iced tea,24.99
370,370,37,0,appetizer option 1,6.64
371,371,37,1,appetizer option 2,19.68
372,372,37,2,appetizer option 3,27.92
373,373,37,3,main dish 1,18.9
374,374,37,4,main dish 2,23.36
375,375,37,5,main dish 3,27.65
376,376,37,6,main dish 4,9.93
377,377,37,7,bottled water,13.76
378,378,37,8,soda,4.55
379,379,37,9,iced tea,27.75
380,380,38,0,appetizer option 1,25.44
381,381,38,1,appetizer option 2,16.71
382,382,38,2,appetizer option 3,3.54
383,383,38,3,main dish 1,5.3
384,384,38,4,main dish 2,19.99
385,385,38,5,main dish 3,29.69
386,386,38,6,main dish 4,22.63
387,387,38,7,bottled water,3.93
388,388,38,8,soda,15.11
389,389,38,9,iced tea,19.91
390,390,39,0,appetizer option 1,2.54
391,391,39,1,appetizer option 2,3.17
392,392,39,2,appetizer option 3,23.94
393,393,39,3,main dish 1,29.86
394,394,39,4,main dish 2,17.6
395,395,39,5,main dish 3,4.02
396,396,39,6,main dish 4,21.78
397,397,39,7,bottled water,8.73
398,398,39,8,soda,4.79
399,399,39,9,iced tea,9.0
400,400,40,0,appetizer option 1,3.7
401,401,40,1,appetizer option 2,16.39
402,402,40,2,appetizer option 3,5.06
403,403,40,3,main dish 1,22.69
404,404,40,4,main dish 2,28.28
405,405,40,5,main dish 3,29.86
406,406,40,6,main dish 4,9.05
407,407,40,7,bottled water,11.48
408,408,40,8,soda,5.25
409,409,40,9,iced tea,16.21
410,410,41,0,appetizer option 1,20.36
411,411,41,1,appetizer option 2,7.95
412,412,41,2,appetizer option 3,10.27
413,413,41,3,main dish 1,3.94
414,414,41,4,main dish 2,6.18
415,415,41,5,main dish 3,28.31
416,416,41,6,main dish 4,10.2
417,417,41,7,bottled water,15.93
418,418,41,8,soda,12.32
419,419,41,9,iced tea,22.26
420,420,42,0,appetizer option 1,12.65
421,421,42,1,appetizer option 2,20.24
422,422,42,2,appetizer option 3,24.05
423,423,42,3,main dish 1,21.73
424,424,42,4,main dish 2,5.3
425,425,42,5,main dish 3,11.91
426,426,42,6,main dish 4,26.63
427,427,42,7,bottled water,20.77
428,428,42,8,soda,10.97
429,429,42,9,iced tea,13.44
430,430,43,0,appetizer option 1,14.59
431,431,43,1,appetizer option 2,26.4
432,432,43,2,appetizer option 3,9.07
433,433,43,3,main dish 1,29.99
434,434,43,4,main dish 2,26.22
435,435,43,5,main dish 3,24.44
436,436,43,6,main dish 4,27.19
437,437,43,7,bottled water,14.48
438,438,43,8,soda,27.14
439,439,43,9,iced tea,15.66
440,440,44,0,appetizer option 1,15.43
441,441,44,1,appetizer option 2,5.09
442,442,44,2,appetizer option 3,20.7
443,443,44,3,main dish 1,12.1
444,444,44,4,main dish 2,17.38
445,445,44,5,main dish 3,24.06
446,446,44,6,main dish 4,17.81
447,447,44,7,bottled water,21.64
448,448,44,8,soda,11.24
449,449,44,9,iced tea,29.82
450,450,45,0,appetizer option 1,23.4
451,451,45,1,appetizer option 2,19.75
452,452,45,2,appetizer option 3,29.72
453,453,45,3,main dish 1,6.5
454,454,45,4,main dish 2,23.13
455,455,45,5,main dish 3,10.42
456,456,45,6,main dish 4,3.85
457,457,45,7,bottled water,8.41
458,458,45,8,soda,11.45
459,459,45,9,iced tea,2.81
460,460,46,0,appetizer option 1,24.85
461,461,46,1,appetizer option 2,28.62
462,462,46,2,appetizer option 3,27.35
463,463,46,3,main dish 1,19.23
464,464,46,4,main dish 2,29.22
465,465,46,5,main dish 3,9.38
466,466,46,6,main dish 4,10.36
467,467,46,7,bottled water,8.5
468,468,46,8,soda,26.59
469,469,46,9,iced tea,17.74
470,470,47,0,appetizer option 1,22.6
471,471,47,1,appetizer option 2,24.94
472,472,47,2,appetizer option 3,20.69
473,473,47,3,main dish 1,22.65
474,474,47,4,main dish 2,5.65
475,475,47,5,main dish 3,9.06
476,476,47,6,main dish 4,16.71
477,477,47,7,bottled water,12.13
478,478,47,8,soda,7.97
479,479,47,9,iced tea,19.53
480,480,48,0,appetizer option 1,10.47
481,481,48,1,appetizer option 2,29.51
482,482,48,2,appetizer option 3,6.43
483,483,48,3,main dish 1,22.81
484,484,48,4,main dish 2,22.83
485,485,48,5,main dish 3,11.31
486,486,48,6,main dish 4,5.44
487,487,48,7,bottled water,2.99
488,488,48,8,soda,18.27
489,489,48,9,iced tea,16.71
490,490,49,0,appetizer option 1,3.39
491,491,49,1,appetizer option 2,10.8
492,492,49,2,appetizer option 3,13.99
493,493,49,3,main dish 1,29.08
494,494,49,4,main dish 2,28.13
495,495,49,5,main dish 3,6.21
496,496,49,6,main dish 4,26.16
497,497,49,7,bottled water,9.78
498,498,49,8,soda,5.88
499,499,49,9,iced tea,15.35
500,500,50,0,appetizer option 1,21.31
501,501,50,1,appetizer option 2,5.9
502,502,50,2,appetizer option 3,13.68
503,503,50,3,main dish 1,18.8
504,504,50,4,main dish 2,4.38
505,505,50,5,main dish 3,26.14
506,506,50,6,main dish 4,19.56
507,507,50,7,bottled water,12.67
508,508,50,8,soda,7.86
509,509,50,9,iced tea,22.68
510,510,51,0,appetizer option 1,4.12
511,511,51,1,appetizer option 2,14.03
512,512,51,2,appetizer option 3,18.57
513,513,51,3,main dish 1,28.47
514,514,51,4,main dish 2,13.32
515,515,51,5,main dish 3,2.8
516,516,51,6,main dish 4,19.02
517,517,51,7,bottled water,4.59
518,518,51,8,soda,17.36
519,519,51,9,iced tea,26.76
520,520,52,0,appetizer option 1,15.79
521,521,52,1,appetizer option 2,13.62
522,522,52,2,appetizer option 3,9.4
523,523,52,3,main dish 1,2.98
524,524,52,4,main dish 2,17.11
525,525,52,5,main dish 3,21.81
526,526,52,6,main dish 4,20.72
527,527,52,7,bottled water,6.96
528,528,52,8,soda,14.74
529,529,52,9,iced tea,6.61
530,530,53,0,appetizer option 1,18.38
531,531,53,1,appetizer option 2,8.77
532,532,53,2,appetizer option 3,3.84
533,533,53,3,main dish 1,23.4
534,534,53,4,main dish 2,22.22
535,535,53,5,main dish 3,7.13
536,536,53,6,main dish 4,9.35
537,537,53,7,bottled water,25.63
538,538,53,8,soda,20.91
539,539,53,9,iced tea,16.57
540,540,54,0,appetizer option 1,7.3
541,541,54,1,appetizer option 2,25.51
542,542,54,2,appetizer option 3,20.07
543,543,54,3,main dish 1,17.31
544,544,54,4,main dish 2,5.43
545,545,54,5,main dish 3,23.18
546,546,54,6,main dish 4,28.73
547,547,54,7,bottled water,25.29
548,548,54,8,soda,18.43
549,549,54,9,iced tea,24.29
550,550,55,0,appetizer option 1,13.81
551,551,55,1,appetizer option 2,22.53
552,552,55,2,appetizer option 3,20.15
553,553,55,3,main dish 1,17.73
554,554,55,4,main dish 2,19.8
555,555,55,5,main dish 3,29.9
556,556,55,6,main dish 4,24.98
557,557,55,7,bottled water,4.99
558,558,55,8,soda,19.75
559,559,55,9,iced tea,11.33
560,560,56,0,appetizer option 1,11.96
561,561,56,1,appetizer option 2,15.2
562,562,56,2,appetizer option 3,3.0
563,563,56,3,main dish 1,23.49
564,564,56,4,main dish 2,7.25
565,565,56,5,main dish 3,8.79
566,566,56,6,main dish 4,17.88
567,567,56,7,bottled water,13.6
568,568,56,8,soda,5.99
569,569,56,9,iced tea,23.41
570,570,57,0,appetizer option 1,15.04
571,571,57,1,appetizer option 2,23.83
572,572,57,2,appetizer option 3,13.8
573,573,57,3,main dish 1,17.52
574,574,57,4,main dish 2,7.31
575,575,57,5,main dish 3,14.42
576,576,57,6,main dish 4,11.12
577,577,57,7,bottled water,29.93
578,578,57,8,soda,14.6
579,579,57,9,iced tea,17.79
580,580,58,0,appetizer option 1,3.21
581,581,58,1,appetizer option 2,24.51
582,582,58,2,appetizer option 3,7.32
583,583,58,3,main dish 1,28.68
584,584,58,4,main dish 2,18.54
585,585,58,5,main dish 3,8.62
586,586,58,6,main dish 4,14.79
587,587,58,7,bottled water,20.17
588,588,58,8,soda,13.21
589,589,58,9,iced tea,22.56
590,590,59,0,appetizer option 1,14.7
591,591,59,1,appetizer option 2,11.59
592,592,59,2,appetizer option 3,18.7
593,593,59,3,main dish 1,25.6
594,594,59,4,main dish 2,12.33
595,595,59,5,main dish 3,7.6
596,596,59,6,main dish 4,28.01
597,597,59,7,bottled water,3.12
598,598,59,8,soda,22.36
599,599,59,9,iced tea,15.29
600,600,60,0,appetizer option 1,20.18
601,601,60,1,appetizer option 2,16.54
602,602,60,2,appetizer option 3,28.33
603,603,60,3,main dish 1,26.42
604,604,60,4,main dish 2,10.36
605,605,60,5,main dish 3,10.62
606,606,60,6,main dish 4,24.41
607,607,60,7,bottled water,14.33
608,608,60,8,soda,12.45
609,609,60,9,iced tea,5.78
610,610,61,0,appetizer option 1,15.2
611,611,61,1,appetizer option 2,17.09
612,612,61,2,appetizer option 3,13.58
613,613,61,3,main dish 1,2.73
614,614,61,4,main dish 2,27.03
615,615,61,5,main dish 3,4.3
616,616,61,6,main dish 4,4.32
617,617,61,7,bottled water,17.5
618,618,61,8,soda,12.44
619,619,61,9,iced tea,28.16
620,620,62,0,appetizer option 1,7.02
621,621,62,1,appetizer option 2,4.05
622,622,62,2,appetizer option 3,6.91
623,623,62,3,main dish 1,12.19
624,624,62,4,main dish 2,27.96
625,625,62,5,main dish 3,22.57
626,626,62,6,main dish 4,4.8
627,627,62,7,bottled water,13.37
628,628,62,8,soda,28.82
629,629,62,9,iced tea,3.01
630,630,63,0,appetizer option 1,12.65
631,631,63,1,appetizer option 2,28.26
632,632,63,2,appetizer option 3,18.0
633,633,63,3,main dish 1,11.58
634,634,63,4,main dish 2,13.4
635,635,63,5,main dish 3,24.21
636,636,63,6,main dish 4,3.17
637,637,63,7,bottled water,8.68
638,638,63,8,soda,25.37
639,639,63,9,iced tea,4.52
640,640,64,0,appetizer option 1,19.26
641,641,64,1,appetizer option 2,24.91
642,642,64,2,appetizer option 3,2.54
643,643,64,3,main dish 1,10.5
644,644,64,4,main dish 2,11.24
645,645,64,5,main dish 3,9.74
646,646,64,6,main dish 4,14.63
647,647,64,7,bottled water,24.9
648,648,64,8,soda,21.63
649,649,64,9,iced tea,14.98
650,650,65,0,appetizer option 1,6.78
651,651,65,1,appetizer option 2,29.57
652,652,65,2,appetizer option 3,7.28
653,653,65,3,main dish 1,6.13
654,654,65,4,main dish 2,7.37
655,655,65,5,main dish 3,19.37
656,656,65,6,main dish 4,11.02
657,657,65,7,bottled water,18.75
658,658,65,8,soda,19.68
659,659,65,9,iced tea,11.46
660,660,66,0,appetizer option 1,24.85
661,661,66,1,appetizer option 2,10.07
662,662,66,2,appetizer option 3,28.14
663,663,66,3,main dish 1,19.53
664,664,66,4,main dish 2,4.53
665,665,66,5,main dish 3,21.63
666,666,66,6,main dish 4,27.13
667,667,66,7,bottled water,18.42
668,668,66,8,soda,17.49
669,669,66,9,iced tea,26.2
670,670,67,0,appetizer option 1,19.13
671,671,67,1,appetizer option 2,29.31
672,672,67,2,appetizer option 3,3.19
673,673,67,3,main dish 1,7.1
674,674,67,4,main dish 2,26.86
675,675,67,5,main dish 3,4.67
676,676,67,6,main dish 4,26.9
677,677,67,7,bottled water,29.18
678,678,67,8,soda,4.12
679,679,67,9,iced tea,25.17
680,680,68,0,appetizer option 1,13.16
681,681,68,1,appetizer option 2,8.35
682,682,68,2,appetizer option 3,11.22
683,683,68,3,main dish 1,17.26
684,684,68,4,main dish 2,17.94
685,685,68,5,main dish 3,29.37
686,686,68,6,main dish 4,11.15
687,687,68,7,bottled water,17.39
688,688,68,8,soda,24.23
689,689,68,9,iced tea,27.82
690,690,69,0,appetizer option 1,18.64
691,691,69,1,appetizer option 2,6.23
692,692,69,2,appetizer option 3,5.78
693,693,69,3,main dish 1,17.27
694,694,69,4,main dish 2,4.54
695,695,69,5,main dish 3,15.45
696,696,69,6,main dish 4,9.66
697,697,69,7,bottled water,14.83
698,698,69,8,soda,12.55
699,699,69,9,iced tea,11.46
700,700,70,0,appetizer option 1,26.92
701,701,70,1,appetizer option 2,19.63
702,702,70,2,appetizer option 3,28.86
703,703,70,3,main dish 1,24.11
704,704,70,4,main dish 2,13.74
705,705,70,5,main dish 3,20.04
706,706,70,6,main dish 4,7.15
707,707,70,7,bottled water,22.11
708,708,70,8,soda,5.85
709,709,70,9,iced tea,25.39
710,710,71,0,appetizer option 1,24.83
711,711,71,1,appetizer option 2,23.08
712,712,71,2,appetizer option 3,23.81
713,713,71,3,main dish 1,6.99
714,714,71,4,main dish 2,16.82
715,715,71,5,main dish 3,9.09
716,716,71,6,main dish 4,25.54
717,717,71,7,bottled water,26.46
718,718,71,8,soda,13.45
719,719,71,9,iced tea,18.77
720,720,72,0,appetizer option 1,10.98
721,721,72,1,appetizer option 2,6.41
722,722,72,2,appetizer option 3,9.99
723,723,72,3,main dish 1,8.57
724,724,72,4,main dish 2,10.42
725,725,72,5,main dish 3,11.63
726,726,72,6,main dish 4,27.29
727,727,72,7,bottled water,23.67
728,728,72,8,soda,15.42
729,729,72,9,iced tea,20.62
730,730,73,0,appetizer option 1,14.36
731,731,73,1,appetizer option 2,9.23
732,732,73,2,appetizer option 3,3.45
733,733,73,3,main dish 1,8.5
734,734,73,4,main dish 2,28.83
735,735,73,5,main dish 3,13.42
736,736,73,6,main dish 4,13.31
737,737,73,7,bottled water,18.91
738,738,73,8,soda,4.58
739,739,73,9,iced tea,28.54
740,740,74,0,appetizer option 1,24.9
741,741,74,1,appetizer option 2,18.1
742,742,74,2,appetizer option 3,8.06
743,743,74,3,main dish 1,20.02
744,744,74,4,main dish 2,9.05
745,745,74,5,main dish 3,27.81
746,746,74,6,main dish 4,11.61
747,747,74,7,bottled water,13.57
748,748,74,8,soda,13.97
749,749,74,9,iced tea,3.54
750,750,75,0,appetizer option 1,17.08
751,751,75,1,appetizer option 2,25.27
752,752,75,2,appetizer option 3,3.33
753,753,75,3,main dish 1,18.28
754,754,75,4,main dish 2,6.56
755,755,75,5,main dish 3,5.24
756,756,75,6,main dish 4,7.74
757,757,75,7,bottled water,14.24
758,758,75,8,soda,8.06
759,759,75,9,iced tea,24.99
760,760,76,0,appetizer option 1,12.2
761,761,76,1,appetizer option 2,12.1
762,762,76,2,appetizer option 3,4.17
763,763,76,3,main dish 1,29.37
764,764,76,4,main dish 2,12.1
765,765,76,5,main dish 3,4.7
766,766,76,6,main dish 4,26.5
767,767,76,7,bottled water,27.22
768,768,76,8,soda,18.69
769,769,76,9,iced tea,13.01
770,770,77,0,appetizer option 1,8.91
771,771,77,1,appetizer option 2,19.15
772,772,77,2,appetizer option 3,25.22
773,773,77,3,main dish 1,22.92
774,774,77,4,main dish 2,26.45
775,775,77,5,main dish 3,14.79
776,776,77,6,main dish 4,13.34
777,777,77,7,bottled water,19.44
778,778,77,8,soda,10.7
779,779,77,9,iced tea,6.07
780,780,78,0,appetizer option 1,6.91
781,781,78,1,appetizer option 2,16.97
782,782,78,2,appetizer option 3,14.52
783,783,78,3,main dish 1,19.79
784,784,78,4,main dish 2,15.9
785,785,78,5,main dish 3,10.38
786,786,78,6,main dish 4,8.23
787,787,78,7,bottled water,3.49
788,788,78,8,soda,9.91
789,789,78,9,iced tea,23.62
790,790,79,0,appetizer option 1,7.23
791,791,79,1,appetizer option 2,9.7
792,792,79,2,appetizer option 3,15.81
793,793,79,3,main dish 1,7.21
794,794,79,4,main dish 2,9.2
795,795,79,5,main dish 3,14.76
796,796,79,6,main dish 4,13.6
797,797,79,7,bottled water,19.94
798,798,79,8,soda,11.01
799,799,79,9,iced tea,21.93
800,800,80,0,appetizer option 1,21.6
801,801,80,1,appetizer option 2,29.08
802,802,80,2,appetizer option 3,6.07
803,803,80,3,main dish 1,25.09
804,804,80,4,main dish 2,24.03
805,805,80,5,main dish 3,16.49
806,806,80,6,main dish 4,14.72
807,807,80,7,bottled water,22.74
808,808,80,8,soda,2.87
809,809,80,9,iced tea,29.02
810,810,81,0,appetizer option 1,8.71
811,811,81,1,appetizer option 2,11.75
812,812,81,2,appetizer option 3,28.13
813,813,81,3,main dish 1,8.65
814,814,81,4,main dish 2,25.37
815,815,81,5,main dish 3,3.56
816,816,81,6,main dish 4,11.31
817,817,81,7,bottled water,6.53
818,818,81,8,soda,10.73
819,819,81,9,iced tea,19.92
820,820,82,0,appetizer option 1,12.19
821,821,82,1,appetizer option 2,24.97
822,822,82,2,appetizer option 3,18.98
823,823,82,3,main dish 1,16.23
824,824,82,4,main dish 2,18.37
825,825,82,5,main dish 3,20.66
826,826,82,6,main dish 4,9.39
827,827,82,7,bottled water,26.53
828,828,82,8,soda,22.03
829,829,82,9,iced tea,25.6
830,830,83,0,appetizer option 1,12.73
831,831,83,1,appetizer option 2,11.54
832,832,83,2,appetizer option 3,6.04
833,833,83,3,main dish 1,28.52
834,834,83,4,main dish 2,4.45
835,835,83,5,main dish 3,8.47
836,836,83,6,main dish 4,23.63
837,837,83,7,bottled water,24.18
838,838,83,8,soda,9.35
839,839,83,9,iced tea,11.41
840,840,84,0,appetizer option 1,24.82
841,841,84,1,appetizer option 2,29.59
842,842,84,2,appetizer option 3,24.45
843,843,84,3,main dish 1,10.03
844,844,84,4,main dish 2,23.92
845,845,84,5,main dish 3,26.39
846,846,84,6,main dish 4,14.97
847,847,84,7,bottled water,18.53
848,848,84,8,soda,26.02
849,849,84,9,iced tea,9.6
850,850,85,0,appetizer option 1,28.92
851,851,85,1,appetizer option 2,10.43
852,852,85,2,appetizer option 3,14.98
853,853,85,3,main dish 1,6.32
854,854,85,4,main dish 2,29.8
855,855,85,5,main dish 3,2.89
856,856,85,6,main dish 4,12.75
857,857,85,7,bottled water,6.43
858,858,85,8,soda,17.05
859,859,85,9,iced tea,11.33
860,860,86,0,appetizer option 1,20.38
861,861,86,1,appetizer option 2,11.46
862,862,86,2,appetizer option 3,6.85
863,863,86,3,main dish 1,19.64
864,864,86,4,main dish 2,19.46
865,865,86,5,main dish 3,6.2
866,866,86,6,main dish 4,21.81
867,867,86,7,bottled water,16.65
868,868,86,8,soda,11.44
869,869,86,9,iced tea,13.88
870,870,87,0,appetizer option 1,20.4
871,871,87,1,appetizer option 2,20.28
872,872,87,2,appetizer option 3,10.99
873,873,87,3,main dish 1,7.35
874,874,87,4,main dish 2,12.45
875,875,87,5,main dish 3,22.58
876,876,87,6,main dish 4,24.83
877,877,87,7,bottled water,5.01
878,878,87,8,soda,18.65
879,879,87,9,iced tea,8.99
880,880,88,0,appetizer option 1,10.81
881,881,88,1,appetizer option 2,14.52
882,882,88,2,appetizer option 3,4.95
883,883,88,3,main dish 1,9.43
884,884,88,4,main dish 2,10.73
885,885,88,5,main dish 3,24.57
886,886,88,6,main dish 4,9.84
887,887,88,7,bottled water,14.81
888,888,88,8,soda,14.3
889,889,88,9,iced tea,29.14
890,890,89,0,appetizer option 1,12.16
891,891,89,1,appetizer option 2,8.96
892,892,89,2,appetizer option 3,20.92
893,893,89,3,main dish 1,2.61
894,894,89,4,main dish 2,4.25
895,895,89,5,main dish 3,8.96
896,896,89,6,main dish 4,9.72
897,897,89,7,bottled water,25.75
898,898,89,8,soda,26.45
899,899,89,9,iced tea,12.43
900,900,90,0,appetizer option 1,27.43
901,901,90,1,appetizer option 2,18.97
902,902,90,2,appetizer option 3,4.17
903,903,90,3,main dish 1,2.84
904,904,90,4,main dish 2,21.28
905,905,90,5,main dish 3,15.16
906,906,90,6,main dish 4,20.24
907,907,90,7,bottled water,13.54
908,908,90,8,soda,23.84
909,909,90,9,iced tea,23.78
910,910,91,0,appetizer option 1,23.02
911,911,91,1,appetizer option 2,26.3
912,912,91,2,appetizer option 3,29.54
913,913,91,3,main dish 1,13.14
914,914,91,4,main dish 2,11.41
915,915,91,5,main dish 3,26.28
916,916,91,6,main dish 4,27.81
917,917,91,7,bottled water,17.09
918,918,91,8,soda,11.49
919,919,91,9,iced tea,29.42
920,920,92,0,appetizer option 1,6.5
921,921,92,1,appetizer option 2,2.67
922,922,92,2,appetizer option 3,21.43
923,923,92,3,main dish 1,28.68
924,924,92,4,main dish 2,11.49
925,925,92,5,main dish 3,14.51
926,926,92,6,main dish 4,24.47
927,927,92,7,bottled water,5.91
928,928,92,8,soda,3.99
929,929,92,9,iced tea,17.94
930,930,93,0,appetizer option 1,27.23
931,931,93,1,appetizer option 2,20.23
932,932,93,2,appetizer option 3,12.33
933,933,93,3,main dish 1,17.15
934,934,93,4,main dish 2,20.0
935,935,93,5,main dish 3,13.06
936,936,93,6,main dish 4,21.32
937,937,93,7,bottled water,13.18
938,938,93,8,soda,19.86
939,939,93,9,iced tea,21.68
940,940,94,0,appetizer option 1,29.76
941,941,94,1,appetizer option 2,22.88
942,942,94,2,appetizer option 3,10.37
943,943,94,3,main dish 1,9.56
944,944,94,4,main dish 2,12.54
945,945,94,5,main dish 3,3.63
946,946,94,6,main dish 4,5.36
947,947,94,7,bottled water,20.91
948,948,94,8,soda,5.63
949,949,94,9,iced tea,21.19
950,950,95,0,appetizer option 1,6.69
951,951,95,1,appetizer option 2,12.92
952,952,95,2,appetizer option 3,10.93
953,953,95,3,main dish 1,7.61
954,954,95,4,main dish 2,27.11
955,955,95,5,main dish 3,16.78
956,956,95,6,main dish 4,17.46
957,957,95,7,bottled water,18.47
958,958,95,8,soda,21.77
959,959,95,9,iced tea,25.82
960,960,96,0,appetizer option 1,14.55
961,961,96,1,appetizer option 2,23.43
962,962,96,2,appetizer option 3,17.58
963,963,96,3,main dish 1,8.05
964,964,96,4,main dish 2,13.13
965,965,96,5,main dish 3,27.59
966,966,96,6,main dish 4,11.17
967,967,96,7,bottled water,27.83
968,968,96,8,soda,21.62
969,969,96,9,iced tea,15.38
970,970,97,0,appetizer option 1,5.9
971,971,97,1,appetizer option 2,10.78
972,972,97,2,appetizer option 3,20.02
973,973,97,3,main dish 1,7.04
974,974,97,4,main dish 2,17.1
975,975,97,5,main dish 3,25.33
976,976,97,6,main dish 4,12.05
977,977,97,7,bottled water,20.55
978,978,97,8,soda,2.92
979,979,97,9,iced tea,10.53
980,980,98,0,appetizer option 1,24.7
981,981,98,1,appetizer option 2,3.12
982,982,98,2,appetizer option 3,6.41
983,983,98,3,main dish 1,4.42
984,984,98,4,main dish 2,3.17
985,985,98,5,main dish 3,16.3
986,986,98,6,main dish 4,4.15
987,987,98,7,bottled water,3.13
988,988,98,8,soda,4.0
989,989,98,9,iced tea,3.74
990,990,99,0,appetizer option 1,5.65
991,991,99,1,appetizer option 2,3.45
992,992,99,2,appetizer option 3,17.86
993,993,99,3,main dish 1,22.42
994,994,99,4,main dish 2,25.22
995,995,99,5,main dish 3,9.17
996,996,99,6,main dish 4,6.24
997,997,99,7,bottled water,15.5
998,998,99,8,soda,8.84
999,999,99,9,iced tea,13.33
